build/verilate/Testbench.vcd
$version Generated by VerilatedVcd $end
$timescale 10ps $end
 $scope module $rootio $end
 $upscope $end
 $scope module Testbench $end
  $var wire 32 4 BASE [31:0] $end
  $var wire 32 5 INITIAL [31:0] $end
  $var wire 1 . clk $end
  $var wire 1 # rstn $end
  $var wire 1 $ high_rst $end
  $var wire 1 % low_co $end
  $var wire 1 ) co $end
  $var wire 8 / cnt [7:0] $end
  $var wire 1 * error $end
  $scope module cnt_24 $end
   $var wire 32 4 BASE [31:0] $end
   $var wire 32 5 INITIAL [31:0] $end
   $var wire 1 6 en $end
   $var wire 1 . clk $end
   $var wire 1 # rstn $end
   $var wire 1 $ high_rst $end
   $var wire 1 % low_co $end
   $var wire 1 ) co $end
   $var wire 8 / cnt [7:0] $end
   $var wire 32 7 HIGH_BASE [31:0] $end
   $var wire 32 7 LOW_BASE [31:0] $end
   $var wire 32 8 HIGH_INIT [31:0] $end
   $var wire 32 9 LOW_INIT [31:0] $end
   $var wire 32 : HIGH_CO [31:0] $end
   $var wire 32 ; LOW_CO [31:0] $end
   $var wire 1 + low_bits_carry $end
   $var wire 1 ) global_temp_co $end
   $var wire 4 , low_bits [3:0] $end
   $var wire 4 0 high_bits [3:0] $end
   $scope module HIGH_CNT $end
    $var wire 32 7 BASE [31:0] $end
    $var wire 32 8 INITIAL [31:0] $end
    $var wire 1 6 en $end
    $var wire 1 1 clk $end
    $var wire 1 # rstn $end
    $var wire 1 + low_co $end
    $var wire 1 $ high_rst $end
    $var wire 1 2 co $end
    $var wire 4 0 cnt [3:0] $end
    $var wire 1 2 temp_co $end
   $upscope $end
   $scope module LOW_CNT $end
    $var wire 32 7 BASE [31:0] $end
    $var wire 32 9 INITIAL [31:0] $end
    $var wire 1 6 en $end
    $var wire 1 . clk $end
    $var wire 1 # rstn $end
    $var wire 1 % low_co $end
    $var wire 1 $ high_rst $end
    $var wire 1 + co $end
    $var wire 4 , cnt [3:0] $end
    $var wire 1 + temp_co $end
   $upscope $end
  $upscope $end
  $scope module judge $end
   $var wire 32 4 BASE [31:0] $end
   $var wire 32 5 INITIAL [31:0] $end
   $var wire 1 . clk $end
   $var wire 1 # rstn $end
   $var wire 1 $ high_rst $end
   $var wire 1 % low_co $end
   $var wire 1 ) co $end
   $var wire 8 / cnt [7:0] $end
   $var wire 1 * error $end
   $var wire 32 & param_rstn [31:0] $end
   $var wire 32 ' param_high_rst [31:0] $end
   $var wire 32 ( param_low_co [31:0] $end
   $var wire 32 - param_co [31:0] $end
   $var wire 32 3 param_cnt [31:0] $end
  $upscope $end
 $upscope $end
$enddefinitions $end


#0
0#
0$
1%
b00000000000000000000000000000000 &
b00000000000000000000000000000000 '
b00000000000000000000000000000001 (
0)
0*
0+
b0000 ,
b00000000000000000000000000000000 -
0.
b00000000 /
b0000 0
11
02
b00000000000000000000000000000000 3
b00000000000000000000000000011000 4
b00000000000000000000000000010000 5
16
b00000000000000000000000000001010 7
b00000000000000000000000000000001 8
b00000000000000000000000000000110 9
b00000000000000000000000000000010 :
b00000000000000000000000000000011 ;
#500
b0110 ,
1.
b00000110 /
01
b00000000000000000000000000000110 3
#1000
0.
b00010110 /
b0001 0
11
b00000000000000000000000000010110 3
#1500
1.
01
#2000
0.
11
#2500
1.
01
#3000
0.
11
#3500
1.
01
#4000
0.
11
#4500
1.
01
#5000
0.
11
#5500
1.
01
#6000
0.
11
#6500
1.
01
#7000
0.
11
#7500
1.
01
#8000
0.
11
#8500
1.
01
#9000
0.
11
#9500
1.
01
#10000
0.
11
#10500
1.
01
#11000
0.
11
#11500
1.
01
#12000
0.
11
#12500
1.
01
#13000
0.
11
#13500
1.
01
#14000
0.
11
#14500
1.
01
#15000
0.
11
#15500
1.
01
#16000
0.
11
#16500
1.
01
#17000
0.
11
#17500
1.
01
#18000
0.
11
#18500
1.
01
#19000
0.
11
#19500
1.
01
#20000
1#
b00000000000000000000000000000001 &
0.
11
#20500
b0111 ,
1.
b00010111 /
01
b00000000000000000000000000010111 3
#21000
0.
11
#21500
b1000 ,
1.
b00011000 /
01
b00000000000000000000000000011000 3
#22000
0.
11
#22500
b1001 ,
1.
b00011001 /
01
b00000000000000000000000000011001 3
#23000
0.
11
#23500
1+
b0000 ,
1.
b00010000 /
01
b00000000000000000000000000010000 3
#24000
0.
b00100000 /
b0010 0
11
b00000000000000000000000000100000 3
#24500
0+
b0001 ,
1.
b00100001 /
01
b00000000000000000000000000100001 3
#25000
0.
11
#25500
b0010 ,
1.
b00100010 /
01
b00000000000000000000000000100010 3
#26000
0.
11
#26500
1)
b0011 ,
b00000000000000000000000000000001 -
1.
b00100011 /
01
b00000000000000000000000000100011 3
#27000
0.
11
#27500
0)
b0100 ,
b00000000000000000000000000000000 -
1.
b00100100 /
01
b00000000000000000000000000100100 3
#28000
0.
11
#28500
1*
b0101 ,
1.
b00100101 /
01
b00000000000000000000000000100101 3
#29000
0.
11
#29500
b0110 ,
1.
b00100110 /
01
b00000000000000000000000000100110 3
#30000
0.
11
#30500
b0111 ,
1.
b00100111 /
01
b00000000000000000000000000100111 3
#31000
0.
11
#31500
b1000 ,
1.
b00101000 /
01
b00000000000000000000000000101000 3
#32000
0.
11
#32500
b1001 ,
1.
b00101001 /
01
b00000000000000000000000000101001 3
#33000
0.
11
#33500
1+
b0000 ,
1.
b00100000 /
01
b00000000000000000000000000100000 3
#34000
0.
b00110000 /
b0011 0
11
b00000000000000000000000000110000 3
#34500
0+
b0001 ,
1.
b00110001 /
01
b00000000000000000000000000110001 3
#35000
0.
11
#35500
b0010 ,
1.
b00110010 /
01
b00000000000000000000000000110010 3
#36000
0.
11
#36500
b0011 ,
1.
b00110011 /
01
b00000000000000000000000000110011 3
#37000
0.
11
#37500
b0100 ,
1.
b00110100 /
01
b00000000000000000000000000110100 3
#38000
0.
11
#38500
b0101 ,
1.
b00110101 /
01
b00000000000000000000000000110101 3
#39000
0.
11
#39500
b0110 ,
1.
b00110110 /
01
b00000000000000000000000000110110 3
#40000
0.
11
#40500
b0111 ,
1.
b00110111 /
01
b00000000000000000000000000110111 3
#41000
0.
11
#41500
b1000 ,
1.
b00111000 /
01
b00000000000000000000000000111000 3
#42000
0.
11
#42500
b1001 ,
1.
b00111001 /
01
b00000000000000000000000000111001 3
#43000
0.
11
#43500
1+
b0000 ,
1.
b00110000 /
01
b00000000000000000000000000110000 3
#44000
0.
b01000000 /
b0100 0
11
b00000000000000000000000001000000 3
#44500
0+
b0001 ,
1.
b01000001 /
01
b00000000000000000000000001000001 3
#45000
0.
11
#45500
b0010 ,
1.
b01000010 /
01
b00000000000000000000000001000010 3
#46000
0.
11
#46500
b0011 ,
1.
b01000011 /
01
b00000000000000000000000001000011 3
#47000
0.
11
#47500
b0100 ,
1.
b01000100 /
01
b00000000000000000000000001000100 3
#48000
0.
11
#48500
b0101 ,
1.
b01000101 /
01
b00000000000000000000000001000101 3
#49000
0.
11
#49500
b0110 ,
1.
b01000110 /
01
b00000000000000000000000001000110 3
#50000
0.
11
#50500
b0111 ,
1.
b01000111 /
01
b00000000000000000000000001000111 3
#51000
0.
11
#51500
b1000 ,
1.
b01001000 /
01
b00000000000000000000000001001000 3
#52000
0.
11
#52500
b1001 ,
1.
b01001001 /
01
b00000000000000000000000001001001 3
#53000
0.
11
#53500
1+
b0000 ,
1.
b01000000 /
01
b00000000000000000000000001000000 3
#54000
0.
b01010000 /
b0101 0
11
b00000000000000000000000001010000 3
#54500
0+
b0001 ,
1.
b01010001 /
01
b00000000000000000000000001010001 3
#55000
0.
11
#55500
b0010 ,
1.
b01010010 /
01
b00000000000000000000000001010010 3
#56000
0.
11
#56500
b0011 ,
1.
b01010011 /
01
b00000000000000000000000001010011 3
#57000
0.
11
#57500
b0100 ,
1.
b01010100 /
01
b00000000000000000000000001010100 3
#58000
0.
11
#58500
b0101 ,
1.
b01010101 /
01
b00000000000000000000000001010101 3
#59000
0.
11
#59500
b0110 ,
1.
b01010110 /
01
b00000000000000000000000001010110 3
