build/verilate/Testbench.vcd
$version Generated by VerilatedVcd $end
$timescale 10ps $end
 $scope module $rootio $end
 $upscope $end
 $scope module Testbench $end
  $var wire 32 4 BASE [31:0] $end
  $var wire 32 5 INITIAL [31:0] $end
  $var wire 1 2 clk $end
  $var wire 1 # rstn $end
  $var wire 1 $ high_rst $end
  $var wire 1 % low_co $end
  $var wire 1 ) co $end
  $var wire 8 * cnt [7:0] $end
  $var wire 1 + error $end
  $scope module cnt_24 $end
   $var wire 32 4 BASE [31:0] $end
   $var wire 32 5 INITIAL [31:0] $end
   $var wire 1 6 en $end
   $var wire 1 2 clk $end
   $var wire 1 # rstn $end
   $var wire 1 $ high_rst $end
   $var wire 1 % low_co $end
   $var wire 1 ) co $end
   $var wire 8 * cnt [7:0] $end
   $var wire 32 7 HIGH_BASE [31:0] $end
   $var wire 32 7 LOW_BASE [31:0] $end
   $var wire 32 8 HIGH_INIT [31:0] $end
   $var wire 32 9 LOW_INIT [31:0] $end
   $var wire 32 : HIGH_CO [31:0] $end
   $var wire 32 ; LOW_CO [31:0] $end
   $var wire 1 , low_bits_carry $end
   $var wire 4 - low_bits [3:0] $end
   $var wire 4 . high_bits [3:0] $end
   $scope module HIGH_CNT $end
    $var wire 32 7 BASE [31:0] $end
    $var wire 32 8 INITIAL [31:0] $end
    $var wire 1 6 en $end
    $var wire 1 2 clk $end
    $var wire 1 # rstn $end
    $var wire 1 , low_co $end
    $var wire 1 3 high_rst $end
    $var wire 1 / co $end
    $var wire 4 . cnt [3:0] $end
   $upscope $end
   $scope module LOW_CNT $end
    $var wire 32 7 BASE [31:0] $end
    $var wire 32 9 INITIAL [31:0] $end
    $var wire 1 6 en $end
    $var wire 1 2 clk $end
    $var wire 1 # rstn $end
    $var wire 1 % low_co $end
    $var wire 1 3 high_rst $end
    $var wire 1 , co $end
    $var wire 4 - cnt [3:0] $end
   $upscope $end
  $upscope $end
  $scope module judge $end
   $var wire 32 4 BASE [31:0] $end
   $var wire 32 5 INITIAL [31:0] $end
   $var wire 1 2 clk $end
   $var wire 1 # rstn $end
   $var wire 1 $ high_rst $end
   $var wire 1 % low_co $end
   $var wire 1 ) co $end
   $var wire 8 * cnt [7:0] $end
   $var wire 1 + error $end
   $var wire 32 & param_rstn [31:0] $end
   $var wire 32 ' param_high_rst [31:0] $end
   $var wire 32 ( param_low_co [31:0] $end
   $var wire 32 0 param_co [31:0] $end
   $var wire 32 1 param_cnt [31:0] $end
  $upscope $end
 $upscope $end
$enddefinitions $end


#0
0#
0$
1%
b00000000000000000000000000000000 &
b00000000000000000000000000000000 '
b00000000000000000000000000000001 (
0)
b00000000 *
0+
0,
b0000 -
b0000 .
0/
b00000000000000000000000000000000 0
b00000000000000000000000000000000 1
02
03
b00000000000000000000000000011000 4
b00000000000000000000000000010000 5
16
b00000000000000000000000000001010 7
b00000000000000000000000000000001 8
b00000000000000000000000000000110 9
b00000000000000000000000000000010 :
b00000000000000000000000000000011 ;
#500
b00010110 *
b0110 -
b0001 .
b00000000000000000000000000010110 1
12
#1000
02
#1500
12
#2000
02
#2500
12
#3000
02
#3500
12
#4000
02
#4500
12
#5000
02
#5500
12
#6000
02
#6500
12
#7000
02
#7500
12
#8000
02
#8500
12
#9000
02
#9500
12
#10000
02
#10500
12
#11000
02
#11500
12
#12000
02
#12500
12
#13000
02
#13500
12
#14000
02
#14500
12
#15000
02
#15500
12
#16000
02
#16500
12
#17000
02
#17500
12
#18000
02
#18500
12
#19000
02
#19500
12
#20000
1#
b00000000000000000000000000000001 &
02
#20500
b00010111 *
b0111 -
b00000000000000000000000000010111 1
12
#21000
02
#21500
b00011000 *
b1000 -
b00000000000000000000000000011000 1
12
#22000
02
#22500
b00011001 *
1,
b1001 -
b00000000000000000000000000011001 1
12
#23000
02
#23500
b00100000 *
0,
b0000 -
b0010 .
b00000000000000000000000000100000 1
12
#24000
02
#24500
b00100001 *
b0001 -
b00000000000000000000000000100001 1
12
#25000
02
#25500
b00100010 *
b0010 -
b00000000000000000000000000100010 1
12
#26000
02
#26500
1)
b00100011 *
b0011 -
b00000000000000000000000000000001 0
b00000000000000000000000000100011 1
12
13
#27000
02
#27500
0)
b00000000 *
b0000 -
b0000 .
b00000000000000000000000000000000 0
b00000000000000000000000000000000 1
12
03
#28000
02
#28500
b00000001 *
b0001 -
b00000000000000000000000000000001 1
12
#29000
02
#29500
b00000010 *
b0010 -
b00000000000000000000000000000010 1
12
#30000
02
#30500
b00000011 *
b0011 -
b00000000000000000000000000000011 1
12
#31000
02
#31500
b00000100 *
b0100 -
b00000000000000000000000000000100 1
12
#32000
02
#32500
b00000101 *
b0101 -
b00000000000000000000000000000101 1
12
#33000
02
#33500
b00000110 *
b0110 -
b00000000000000000000000000000110 1
12
#34000
02
#34500
b00000111 *
b0111 -
b00000000000000000000000000000111 1
12
#35000
02
#35500
b00001000 *
b1000 -
b00000000000000000000000000001000 1
12
#36000
02
#36500
b00001001 *
1,
b1001 -
b00000000000000000000000000001001 1
12
#37000
02
#37500
b00010000 *
0,
b0000 -
b0001 .
b00000000000000000000000000010000 1
12
#38000
02
#38500
b00010001 *
b0001 -
b00000000000000000000000000010001 1
12
#39000
02
#39500
b00010010 *
b0010 -
b00000000000000000000000000010010 1
12
#40000
02
#40500
b00010011 *
b0011 -
b00000000000000000000000000010011 1
12
#41000
02
#41500
b00010100 *
b0100 -
b00000000000000000000000000010100 1
12
#42000
02
#42500
b00010101 *
b0101 -
b00000000000000000000000000010101 1
12
#43000
02
#43500
b00010110 *
b0110 -
b00000000000000000000000000010110 1
12
#44000
02
#44500
b00010111 *
b0111 -
b00000000000000000000000000010111 1
12
#45000
02
#45500
b00011000 *
b1000 -
b00000000000000000000000000011000 1
12
#46000
02
#46500
b00011001 *
1,
b1001 -
b00000000000000000000000000011001 1
12
#47000
02
#47500
b00100000 *
0,
b0000 -
b0010 .
b00000000000000000000000000100000 1
12
#48000
02
#48500
b00100001 *
b0001 -
b00000000000000000000000000100001 1
12
#49000
02
#49500
b00100010 *
b0010 -
b00000000000000000000000000100010 1
12
#50000
02
#50500
1)
b00100011 *
b0011 -
b00000000000000000000000000000001 0
b00000000000000000000000000100011 1
12
13
#51000
02
#51500
0)
b00000000 *
b0000 -
b0000 .
b00000000000000000000000000000000 0
b00000000000000000000000000000000 1
12
03
#52000
02
#52500
b00000001 *
b0001 -
b00000000000000000000000000000001 1
12
#53000
02
#53500
b00000010 *
b0010 -
b00000000000000000000000000000010 1
12
#54000
02
#54500
b00000011 *
b0011 -
b00000000000000000000000000000011 1
12
#55000
02
#55500
b00000100 *
b0100 -
b00000000000000000000000000000100 1
12
#56000
02
#56500
b00000101 *
b0101 -
b00000000000000000000000000000101 1
12
#57000
02
#57500
b00000110 *
b0110 -
b00000000000000000000000000000110 1
12
#58000
02
#58500
b00000111 *
b0111 -
b00000000000000000000000000000111 1
12
#59000
02
#59500
b00001000 *
b1000 -
b00000000000000000000000000001000 1
12
