build/verilate/Testbench.vcd
$version Generated by VerilatedVcd $end
$timescale 10ps $end
 $scope module $rootio $end
 $upscope $end
 $scope module Testbench $end
  $var wire 32 5 BASE [31:0] $end
  $var wire 32 6 INITIAL [31:0] $end
  $var wire 1 . clk $end
  $var wire 1 # rstn $end
  $var wire 1 $ high_rst $end
  $var wire 1 % low_co $end
  $var wire 1 ) co $end
  $var wire 8 / cnt [7:0] $end
  $var wire 1 * error $end
  $scope module cnt_24 $end
   $var wire 32 5 BASE [31:0] $end
   $var wire 32 6 INITIAL [31:0] $end
   $var wire 1 7 en $end
   $var wire 1 . clk $end
   $var wire 1 # rstn $end
   $var wire 1 $ high_rst $end
   $var wire 1 % low_co $end
   $var wire 1 ) co $end
   $var wire 8 / cnt [7:0] $end
   $var wire 32 8 HIGH_BASE [31:0] $end
   $var wire 32 8 LOW_BASE [31:0] $end
   $var wire 32 9 HIGH_INIT [31:0] $end
   $var wire 32 : LOW_INIT [31:0] $end
   $var wire 32 ; HIGH_CO [31:0] $end
   $var wire 32 < LOW_CO [31:0] $end
   $var wire 1 + low_bits_carry $end
   $var wire 1 ) global_temp_co $end
   $var wire 4 , low_bits [3:0] $end
   $var wire 4 0 high_bits [3:0] $end
   $scope module HIGH_CNT $end
    $var wire 32 8 BASE [31:0] $end
    $var wire 32 9 INITIAL [31:0] $end
    $var wire 1 7 en $end
    $var wire 1 1 clk $end
    $var wire 1 # rstn $end
    $var wire 1 + low_co $end
    $var wire 1 2 high_rst $end
    $var wire 1 3 co $end
    $var wire 4 0 cnt [3:0] $end
    $var wire 1 3 temp_co $end
   $upscope $end
   $scope module LOW_CNT $end
    $var wire 32 8 BASE [31:0] $end
    $var wire 32 : INITIAL [31:0] $end
    $var wire 1 7 en $end
    $var wire 1 . clk $end
    $var wire 1 # rstn $end
    $var wire 1 % low_co $end
    $var wire 1 2 high_rst $end
    $var wire 1 + co $end
    $var wire 4 , cnt [3:0] $end
    $var wire 1 + temp_co $end
   $upscope $end
  $upscope $end
  $scope module judge $end
   $var wire 32 5 BASE [31:0] $end
   $var wire 32 6 INITIAL [31:0] $end
   $var wire 1 . clk $end
   $var wire 1 # rstn $end
   $var wire 1 $ high_rst $end
   $var wire 1 % low_co $end
   $var wire 1 ) co $end
   $var wire 8 / cnt [7:0] $end
   $var wire 1 * error $end
   $var wire 32 & param_rstn [31:0] $end
   $var wire 32 ' param_high_rst [31:0] $end
   $var wire 32 ( param_low_co [31:0] $end
   $var wire 32 - param_co [31:0] $end
   $var wire 32 4 param_cnt [31:0] $end
  $upscope $end
 $upscope $end
$enddefinitions $end


#0
0#
0$
1%
b00000000000000000000000000000000 &
b00000000000000000000000000000000 '
b00000000000000000000000000000001 (
0)
0*
0+
b0000 ,
b00000000000000000000000000000000 -
0.
b00000000 /
b0000 0
11
02
03
b00000000000000000000000000000000 4
b00000000000000000000000000011000 5
b00000000000000000000000000010000 6
17
b00000000000000000000000000001010 8
b00000000000000000000000000000001 9
b00000000000000000000000000000110 :
b00000000000000000000000000000010 ;
b00000000000000000000000000000011 <
#200
b0110 ,
1.
b00000110 /
01
b00000000000000000000000000000110 4
#400
0.
b00010110 /
b0001 0
11
b00000000000000000000000000010110 4
#600
1.
01
#800
0.
11
#1000
1.
01
#1200
0.
11
#1400
1.
01
#1600
0.
11
#1800
1.
01
#2000
0.
11
#2200
1.
01
#2400
0.
11
#2600
1.
01
#2800
0.
11
#3000
1.
01
#3200
0.
11
#3400
1.
01
#3600
0.
11
#3800
1.
01
#4000
0.
11
#4200
1.
01
#4400
0.
11
#4600
1.
01
#4800
0.
11
#5000
1.
01
#5200
0.
11
#5400
1.
01
#5600
0.
11
#5800
1.
01
#6000
0.
11
#6200
1.
01
#6400
0.
11
#6600
1.
01
#6800
0.
11
#7000
1.
01
#7200
0.
11
#7400
1.
01
#7600
0.
11
#7800
1.
01
#8000
0.
11
#8200
1.
01
#8400
0.
11
#8600
1.
01
#8800
0.
11
#9000
1.
01
#9200
0.
11
#9400
1.
01
#9600
0.
11
#9800
1.
01
#10000
0.
11
#10200
1.
01
#10400
0.
11
#10600
1.
01
#10800
0.
11
#11000
1.
01
#11200
0.
11
#11400
1.
01
#11600
0.
11
#11800
1.
01
#12000
0.
11
#12200
1.
01
#12400
0.
11
#12600
1.
01
#12800
0.
11
#13000
1.
01
#13200
0.
11
#13400
1.
01
#13600
0.
11
#13800
1.
01
#14000
0.
11
#14200
1.
01
#14400
0.
11
#14600
1.
01
#14800
0.
11
#15000
1.
01
#15200
0.
11
#15400
1.
01
#15600
0.
11
#15800
1.
01
#16000
0.
11
#16200
1.
01
#16400
0.
11
#16600
1.
01
#16800
0.
11
#17000
1.
01
#17200
0.
11
#17400
1.
01
#17600
0.
11
#17800
1.
01
#18000
0.
11
#18200
1.
01
#18400
0.
11
#18600
1.
01
#18800
0.
11
#19000
1.
01
#19200
0.
11
#19400
1.
01
#19600
0.
11
#19800
1.
01
#20000
1#
b00000000000000000000000000000001 &
0.
11
#20200
b0111 ,
1.
b00010111 /
01
b00000000000000000000000000010111 4
#20400
0.
11
#20600
b1000 ,
1.
b00011000 /
01
b00000000000000000000000000011000 4
#20800
0.
11
#21000
b1001 ,
1.
b00011001 /
01
b00000000000000000000000000011001 4
#21200
0.
11
#21400
1+
b0000 ,
1.
b00010000 /
01
b00000000000000000000000000010000 4
#21600
0.
b00100000 /
b0010 0
11
b00000000000000000000000000100000 4
#21800
0+
b0001 ,
1.
b00100001 /
01
b00000000000000000000000000100001 4
#22000
0.
11
#22200
b0010 ,
1.
b00100010 /
01
b00000000000000000000000000100010 4
#22400
0.
11
#22600
1)
b0011 ,
b00000000000000000000000000000001 -
1.
b00100011 /
01
12
b00000000000000000000000000100011 4
#22800
0.
b00000011 /
b0000 0
11
b00000000000000000000000000000011 4
#23000
0)
1*
b0000 ,
b00000000000000000000000000000000 -
1.
b00000000 /
01
02
b00000000000000000000000000000000 4
#23200
0.
11
#23400
0*
b0001 ,
1.
b00000001 /
01
b00000000000000000000000000000001 4
#23600
0.
11
#23800
b0010 ,
1.
b00000010 /
01
b00000000000000000000000000000010 4
#24000
0.
11
#24200
b0011 ,
1.
b00000011 /
01
b00000000000000000000000000000011 4
#24400
0.
11
#24600
b0100 ,
1.
b00000100 /
01
b00000000000000000000000000000100 4
#24800
0.
11
#25000
b0101 ,
1.
b00000101 /
01
b00000000000000000000000000000101 4
#25200
0.
11
#25400
b0110 ,
1.
b00000110 /
01
b00000000000000000000000000000110 4
#25600
0.
11
#25800
b0111 ,
1.
b00000111 /
01
b00000000000000000000000000000111 4
#26000
0.
11
#26200
b1000 ,
1.
b00001000 /
01
b00000000000000000000000000001000 4
#26400
0.
11
#26600
b1001 ,
1.
b00001001 /
01
b00000000000000000000000000001001 4
#26800
0.
11
#27000
1+
b0000 ,
1.
b00000000 /
01
b00000000000000000000000000000000 4
#27200
0.
b00010000 /
b0001 0
11
b00000000000000000000000000010000 4
#27400
0+
b0001 ,
1.
b00010001 /
01
b00000000000000000000000000010001 4
#27600
0.
11
#27800
b0010 ,
1.
b00010010 /
01
b00000000000000000000000000010010 4
#28000
0.
11
#28200
b0011 ,
1.
b00010011 /
01
b00000000000000000000000000010011 4
#28400
0.
11
#28600
b0100 ,
1.
b00010100 /
01
b00000000000000000000000000010100 4
#28800
0.
11
#29000
b0101 ,
1.
b00010101 /
01
b00000000000000000000000000010101 4
#29200
0.
11
#29400
b0110 ,
1.
b00010110 /
01
b00000000000000000000000000010110 4
#29600
0.
11
#29800
b0111 ,
1.
b00010111 /
01
b00000000000000000000000000010111 4
#30000
0.
11
#30200
b1000 ,
1.
b00011000 /
01
b00000000000000000000000000011000 4
#30400
0.
11
#30600
b1001 ,
1.
b00011001 /
01
b00000000000000000000000000011001 4
#30800
0.
11
#31000
1+
b0000 ,
1.
b00010000 /
01
b00000000000000000000000000010000 4
#31200
0.
b00100000 /
b0010 0
11
b00000000000000000000000000100000 4
#31400
0+
b0001 ,
1.
b00100001 /
01
b00000000000000000000000000100001 4
#31600
0.
11
#31800
b0010 ,
1.
b00100010 /
01
b00000000000000000000000000100010 4
#32000
0.
11
#32200
1)
b0011 ,
b00000000000000000000000000000001 -
1.
b00100011 /
01
12
b00000000000000000000000000100011 4
#32400
0.
b00000011 /
b0000 0
11
b00000000000000000000000000000011 4
#32600
0)
1*
b0000 ,
b00000000000000000000000000000000 -
1.
b00000000 /
01
02
b00000000000000000000000000000000 4
#32800
0.
11
#33000
0*
b0001 ,
1.
b00000001 /
01
b00000000000000000000000000000001 4
#33200
0.
11
#33400
b0010 ,
1.
b00000010 /
01
b00000000000000000000000000000010 4
#33600
0.
11
#33800
b0011 ,
1.
b00000011 /
01
b00000000000000000000000000000011 4
#34000
0.
11
#34200
b0100 ,
1.
b00000100 /
01
b00000000000000000000000000000100 4
#34400
0.
11
#34600
b0101 ,
1.
b00000101 /
01
b00000000000000000000000000000101 4
#34800
0.
11
#35000
b0110 ,
1.
b00000110 /
01
b00000000000000000000000000000110 4
#35200
0.
11
#35400
b0111 ,
1.
b00000111 /
01
b00000000000000000000000000000111 4
#35600
0.
11
#35800
b1000 ,
1.
b00001000 /
01
b00000000000000000000000000001000 4
#36000
0.
11
#36200
b1001 ,
1.
b00001001 /
01
b00000000000000000000000000001001 4
#36400
0.
11
#36600
1+
b0000 ,
1.
b00000000 /
01
b00000000000000000000000000000000 4
#36800
0.
b00010000 /
b0001 0
11
b00000000000000000000000000010000 4
#37000
0+
b0001 ,
1.
b00010001 /
01
b00000000000000000000000000010001 4
#37200
0.
11
#37400
b0010 ,
1.
b00010010 /
01
b00000000000000000000000000010010 4
#37600
0.
11
#37800
b0011 ,
1.
b00010011 /
01
b00000000000000000000000000010011 4
#38000
0.
11
#38200
b0100 ,
1.
b00010100 /
01
b00000000000000000000000000010100 4
#38400
0.
11
#38600
b0101 ,
1.
b00010101 /
01
b00000000000000000000000000010101 4
#38800
0.
11
#39000
b0110 ,
1.
b00010110 /
01
b00000000000000000000000000010110 4
#39200
0.
11
#39400
b0111 ,
1.
b00010111 /
01
b00000000000000000000000000010111 4
#39600
0.
11
#39800
b1000 ,
1.
b00011000 /
01
b00000000000000000000000000011000 4
#40000
0.
11
#40200
b1001 ,
1.
b00011001 /
01
b00000000000000000000000000011001 4
#40400
0.
11
#40600
1+
b0000 ,
1.
b00010000 /
01
b00000000000000000000000000010000 4
#40800
0.
b00100000 /
b0010 0
11
b00000000000000000000000000100000 4
#41000
0+
b0001 ,
1.
b00100001 /
01
b00000000000000000000000000100001 4
#41200
0.
11
#41400
b0010 ,
1.
b00100010 /
01
b00000000000000000000000000100010 4
#41600
0.
11
#41800
1)
b0011 ,
b00000000000000000000000000000001 -
1.
b00100011 /
01
12
b00000000000000000000000000100011 4
#42000
0.
b00000011 /
b0000 0
11
b00000000000000000000000000000011 4
#42200
0)
1*
b0000 ,
b00000000000000000000000000000000 -
1.
b00000000 /
01
02
b00000000000000000000000000000000 4
#42400
0.
11
#42600
0*
b0001 ,
1.
b00000001 /
01
b00000000000000000000000000000001 4
#42800
0.
11
#43000
b0010 ,
1.
b00000010 /
01
b00000000000000000000000000000010 4
#43200
0.
11
#43400
b0011 ,
1.
b00000011 /
01
b00000000000000000000000000000011 4
#43600
0.
11
#43800
b0100 ,
1.
b00000100 /
01
b00000000000000000000000000000100 4
#44000
0.
11
#44200
b0101 ,
1.
b00000101 /
01
b00000000000000000000000000000101 4
#44400
0.
11
#44600
b0110 ,
1.
b00000110 /
01
b00000000000000000000000000000110 4
#44800
0.
11
#45000
b0111 ,
1.
b00000111 /
01
b00000000000000000000000000000111 4
#45200
0.
11
#45400
b1000 ,
1.
b00001000 /
01
b00000000000000000000000000001000 4
#45600
0.
11
#45800
b1001 ,
1.
b00001001 /
01
b00000000000000000000000000001001 4
#46000
0.
11
#46200
1+
b0000 ,
1.
b00000000 /
01
b00000000000000000000000000000000 4
#46400
0.
b00010000 /
b0001 0
11
b00000000000000000000000000010000 4
#46600
0+
b0001 ,
1.
b00010001 /
01
b00000000000000000000000000010001 4
#46800
0.
11
#47000
b0010 ,
1.
b00010010 /
01
b00000000000000000000000000010010 4
#47200
0.
11
#47400
b0011 ,
1.
b00010011 /
01
b00000000000000000000000000010011 4
#47600
0.
11
#47800
b0100 ,
1.
b00010100 /
01
b00000000000000000000000000010100 4
#48000
0.
11
#48200
b0101 ,
1.
b00010101 /
01
b00000000000000000000000000010101 4
#48400
0.
11
#48600
b0110 ,
1.
b00010110 /
01
b00000000000000000000000000010110 4
#48800
0.
11
#49000
b0111 ,
1.
b00010111 /
01
b00000000000000000000000000010111 4
#49200
0.
11
#49400
b1000 ,
1.
b00011000 /
01
b00000000000000000000000000011000 4
#49600
0.
11
#49800
b1001 ,
1.
b00011001 /
01
b00000000000000000000000000011001 4
#50000
0.
11
#50200
1+
b0000 ,
1.
b00010000 /
01
b00000000000000000000000000010000 4
#50400
0.
b00100000 /
b0010 0
11
b00000000000000000000000000100000 4
#50600
0+
b0001 ,
1.
b00100001 /
01
b00000000000000000000000000100001 4
#50800
0.
11
#51000
b0010 ,
1.
b00100010 /
01
b00000000000000000000000000100010 4
#51200
0.
11
#51400
1)
b0011 ,
b00000000000000000000000000000001 -
1.
b00100011 /
01
12
b00000000000000000000000000100011 4
#51600
0.
b00000011 /
b0000 0
11
b00000000000000000000000000000011 4
#51800
0)
1*
b0000 ,
b00000000000000000000000000000000 -
1.
b00000000 /
01
02
b00000000000000000000000000000000 4
#52000
0.
11
#52200
0*
b0001 ,
1.
b00000001 /
01
b00000000000000000000000000000001 4
#52400
0.
11
#52600
b0010 ,
1.
b00000010 /
01
b00000000000000000000000000000010 4
#52800
0.
11
#53000
b0011 ,
1.
b00000011 /
01
b00000000000000000000000000000011 4
#53200
0.
11
#53400
b0100 ,
1.
b00000100 /
01
b00000000000000000000000000000100 4
#53600
0.
11
#53800
b0101 ,
1.
b00000101 /
01
b00000000000000000000000000000101 4
#54000
0.
11
#54200
b0110 ,
1.
b00000110 /
01
b00000000000000000000000000000110 4
#54400
0.
11
#54600
b0111 ,
1.
b00000111 /
01
b00000000000000000000000000000111 4
#54800
0.
11
#55000
b1000 ,
1.
b00001000 /
01
b00000000000000000000000000001000 4
#55200
0.
11
#55400
b1001 ,
1.
b00001001 /
01
b00000000000000000000000000001001 4
#55600
0.
11
#55800
1+
b0000 ,
1.
b00000000 /
01
b00000000000000000000000000000000 4
#56000
0.
b00010000 /
b0001 0
11
b00000000000000000000000000010000 4
#56200
0+
b0001 ,
1.
b00010001 /
01
b00000000000000000000000000010001 4
#56400
0.
11
#56600
b0010 ,
1.
b00010010 /
01
b00000000000000000000000000010010 4
#56800
0.
11
#57000
b0011 ,
1.
b00010011 /
01
b00000000000000000000000000010011 4
#57200
0.
11
#57400
b0100 ,
1.
b00010100 /
01
b00000000000000000000000000010100 4
#57600
0.
11
#57800
b0101 ,
1.
b00010101 /
01
b00000000000000000000000000010101 4
#58000
0.
11
#58200
b0110 ,
1.
b00010110 /
01
b00000000000000000000000000010110 4
#58400
0.
11
#58600
b0111 ,
1.
b00010111 /
01
b00000000000000000000000000010111 4
#58800
0.
11
#59000
b1000 ,
1.
b00011000 /
01
b00000000000000000000000000011000 4
#59200
0.
11
#59400
b1001 ,
1.
b00011001 /
01
b00000000000000000000000000011001 4
#59600
0.
11
#59800
1+
b0000 ,
1.
b00010000 /
01
b00000000000000000000000000010000 4
#60000
0.
b00100000 /
b0010 0
11
b00000000000000000000000000100000 4
