build/verilate/Testbench.vcd
$version Generated by VerilatedVcd $end
$timescale 10ps $end
 $scope module $rootio $end
 $upscope $end
 $scope module Testbench $end
  $var wire 32 5 BASE [31:0] $end
  $var wire 32 6 INITIAL [31:0] $end
  $var wire 1 . clk $end
  $var wire 1 # rstn $end
  $var wire 1 $ high_rst $end
  $var wire 1 % low_co $end
  $var wire 1 ) co $end
  $var wire 8 / cnt [7:0] $end
  $var wire 1 * error $end
  $scope module cnt_24 $end
   $var wire 32 5 BASE [31:0] $end
   $var wire 32 6 INITIAL [31:0] $end
   $var wire 1 7 en $end
   $var wire 1 . clk $end
   $var wire 1 # rstn $end
   $var wire 1 $ high_rst $end
   $var wire 1 % low_co $end
   $var wire 1 ) co $end
   $var wire 8 / cnt [7:0] $end
   $var wire 32 8 HIGH_BASE [31:0] $end
   $var wire 32 8 LOW_BASE [31:0] $end
   $var wire 32 9 HIGH_INIT [31:0] $end
   $var wire 32 : LOW_INIT [31:0] $end
   $var wire 32 ; HIGH_CO [31:0] $end
   $var wire 32 < LOW_CO [31:0] $end
   $var wire 1 + low_bits_carry $end
   $var wire 1 ) global_temp_co $end
   $var wire 4 , low_bits [3:0] $end
   $var wire 4 0 high_bits [3:0] $end
   $scope module HIGH_CNT $end
    $var wire 32 8 BASE [31:0] $end
    $var wire 32 9 INITIAL [31:0] $end
    $var wire 1 7 en $end
    $var wire 1 1 clk $end
    $var wire 1 # rstn $end
    $var wire 1 + low_co $end
    $var wire 1 2 high_rst $end
    $var wire 1 3 co $end
    $var wire 4 0 cnt [3:0] $end
    $var wire 1 3 temp_co $end
   $upscope $end
   $scope module LOW_CNT $end
    $var wire 32 8 BASE [31:0] $end
    $var wire 32 : INITIAL [31:0] $end
    $var wire 1 7 en $end
    $var wire 1 . clk $end
    $var wire 1 # rstn $end
    $var wire 1 % low_co $end
    $var wire 1 2 high_rst $end
    $var wire 1 + co $end
    $var wire 4 , cnt [3:0] $end
    $var wire 1 + temp_co $end
   $upscope $end
  $upscope $end
  $scope module judge $end
   $var wire 32 5 BASE [31:0] $end
   $var wire 32 6 INITIAL [31:0] $end
   $var wire 1 . clk $end
   $var wire 1 # rstn $end
   $var wire 1 $ high_rst $end
   $var wire 1 % low_co $end
   $var wire 1 ) co $end
   $var wire 8 / cnt [7:0] $end
   $var wire 1 * error $end
   $var wire 32 & param_rstn [31:0] $end
   $var wire 32 ' param_high_rst [31:0] $end
   $var wire 32 ( param_low_co [31:0] $end
   $var wire 32 - param_co [31:0] $end
   $var wire 32 4 param_cnt [31:0] $end
  $upscope $end
 $upscope $end
$enddefinitions $end


#0
0#
0$
1%
b00000000000000000000000000000000 &
b00000000000000000000000000000000 '
b00000000000000000000000000000001 (
0)
0*
0+
b0000 ,
b00000000000000000000000000000000 -
0.
b00000000 /
b0000 0
11
02
03
b00000000000000000000000000000000 4
b00000000000000000000000000011000 5
b00000000000000000000000000010000 6
17
b00000000000000000000000000001010 8
b00000000000000000000000000000001 9
b00000000000000000000000000000110 :
b00000000000000000000000000000010 ;
b00000000000000000000000000000011 <
#500
b0110 ,
1.
b00000110 /
01
b00000000000000000000000000000110 4
#1000
0.
b00010110 /
b0001 0
11
b00000000000000000000000000010110 4
#1500
1.
01
#2000
0.
11
#2500
1.
01
#3000
0.
11
#3500
1.
01
#4000
0.
11
#4500
1.
01
#5000
0.
11
#5500
1.
01
#6000
0.
11
#6500
1.
01
#7000
0.
11
#7500
1.
01
#8000
0.
11
#8500
1.
01
#9000
0.
11
#9500
1.
01
#10000
0.
11
#10500
1.
01
#11000
0.
11
#11500
1.
01
#12000
0.
11
#12500
1.
01
#13000
0.
11
#13500
1.
01
#14000
0.
11
#14500
1.
01
#15000
0.
11
#15500
1.
01
#16000
0.
11
#16500
1.
01
#17000
0.
11
#17500
1.
01
#18000
0.
11
#18500
1.
01
#19000
0.
11
#19500
1.
01
#20000
1#
b00000000000000000000000000000001 &
0.
11
#20500
b0111 ,
1.
b00010111 /
01
b00000000000000000000000000010111 4
#21000
0.
11
#21500
b1000 ,
1.
b00011000 /
01
b00000000000000000000000000011000 4
#22000
0.
11
#22500
b1001 ,
1.
b00011001 /
01
b00000000000000000000000000011001 4
#23000
0.
11
#23500
1+
b0000 ,
1.
b00010000 /
01
b00000000000000000000000000010000 4
#24000
0.
b00100000 /
b0010 0
11
b00000000000000000000000000100000 4
#24500
0+
b0001 ,
1.
b00100001 /
01
b00000000000000000000000000100001 4
#25000
0.
11
#25500
b0010 ,
1.
b00100010 /
01
b00000000000000000000000000100010 4
#26000
0.
11
#26500
1)
b0011 ,
b00000000000000000000000000000001 -
1.
b00100011 /
01
12
b00000000000000000000000000100011 4
#27000
0.
b00000011 /
b0000 0
11
b00000000000000000000000000000011 4
#27500
0)
1*
b0000 ,
b00000000000000000000000000000000 -
1.
b00000000 /
01
02
b00000000000000000000000000000000 4
#28000
0.
11
#28500
0*
b0001 ,
1.
b00000001 /
01
b00000000000000000000000000000001 4
#29000
0.
11
#29500
b0010 ,
1.
b00000010 /
01
b00000000000000000000000000000010 4
#30000
0.
11
#30500
b0011 ,
1.
b00000011 /
01
b00000000000000000000000000000011 4
#31000
0.
11
#31500
b0100 ,
1.
b00000100 /
01
b00000000000000000000000000000100 4
#32000
0.
11
#32500
b0101 ,
1.
b00000101 /
01
b00000000000000000000000000000101 4
#33000
0.
11
#33500
b0110 ,
1.
b00000110 /
01
b00000000000000000000000000000110 4
#34000
0.
11
#34500
b0111 ,
1.
b00000111 /
01
b00000000000000000000000000000111 4
#35000
0.
11
#35500
b1000 ,
1.
b00001000 /
01
b00000000000000000000000000001000 4
#36000
0.
11
#36500
b1001 ,
1.
b00001001 /
01
b00000000000000000000000000001001 4
#37000
0.
11
#37500
1+
b0000 ,
1.
b00000000 /
01
b00000000000000000000000000000000 4
#38000
0.
b00010000 /
b0001 0
11
b00000000000000000000000000010000 4
#38500
0+
b0001 ,
1.
b00010001 /
01
b00000000000000000000000000010001 4
#39000
0.
11
#39500
b0010 ,
1.
b00010010 /
01
b00000000000000000000000000010010 4
#40000
0.
11
#40500
b0011 ,
1.
b00010011 /
01
b00000000000000000000000000010011 4
#41000
0.
11
#41500
b0100 ,
1.
b00010100 /
01
b00000000000000000000000000010100 4
#42000
0.
11
#42500
b0101 ,
1.
b00010101 /
01
b00000000000000000000000000010101 4
#43000
0.
11
#43500
b0110 ,
1.
b00010110 /
01
b00000000000000000000000000010110 4
#44000
0.
11
#44500
b0111 ,
1.
b00010111 /
01
b00000000000000000000000000010111 4
#45000
0.
11
#45500
b1000 ,
1.
b00011000 /
01
b00000000000000000000000000011000 4
#46000
0.
11
#46500
b1001 ,
1.
b00011001 /
01
b00000000000000000000000000011001 4
#47000
0.
11
#47500
1+
b0000 ,
1.
b00010000 /
01
b00000000000000000000000000010000 4
#48000
0.
b00100000 /
b0010 0
11
b00000000000000000000000000100000 4
#48500
0+
b0001 ,
1.
b00100001 /
01
b00000000000000000000000000100001 4
#49000
0.
11
#49500
b0010 ,
1.
b00100010 /
01
b00000000000000000000000000100010 4
#50000
0.
11
#50500
1)
b0011 ,
b00000000000000000000000000000001 -
1.
b00100011 /
01
12
b00000000000000000000000000100011 4
#51000
0.
b00000011 /
b0000 0
11
b00000000000000000000000000000011 4
#51500
0)
1*
b0000 ,
b00000000000000000000000000000000 -
1.
b00000000 /
01
02
b00000000000000000000000000000000 4
#52000
0.
11
#52500
0*
b0001 ,
1.
b00000001 /
01
b00000000000000000000000000000001 4
#53000
0.
11
#53500
b0010 ,
1.
b00000010 /
01
b00000000000000000000000000000010 4
#54000
0.
11
#54500
b0011 ,
1.
b00000011 /
01
b00000000000000000000000000000011 4
#55000
0.
11
#55500
b0100 ,
1.
b00000100 /
01
b00000000000000000000000000000100 4
#56000
0.
11
#56500
b0101 ,
1.
b00000101 /
01
b00000000000000000000000000000101 4
#57000
0.
11
#57500
b0110 ,
1.
b00000110 /
01
b00000000000000000000000000000110 4
#58000
0.
11
#58500
b0111 ,
1.
b00000111 /
01
b00000000000000000000000000000111 4
#59000
0.
11
#59500
b1000 ,
1.
b00001000 /
01
b00000000000000000000000000001000 4
