build/verilate/Testbench.vcd
$version Generated by VerilatedVcd $end
$timescale 10ps $end
 $scope module $rootio $end
 $upscope $end
 $scope module Testbench $end
  $var wire 32 3 BASE [31:0] $end
  $var wire 32 4 INITIAL [31:0] $end
  $var wire 1 0 clk $end
  $var wire 1 # rstn $end
  $var wire 1 $ high_rst $end
  $var wire 1 % low_co $end
  $var wire 1 ) co $end
  $var wire 8 * cnt [7:0] $end
  $var wire 1 + error $end
  $scope module cnt_24 $end
   $var wire 32 3 BASE [31:0] $end
   $var wire 32 4 INITIAL [31:0] $end
   $var wire 1 5 en $end
   $var wire 1 0 clk $end
   $var wire 1 # rstn $end
   $var wire 1 $ high_rst $end
   $var wire 1 % low_co $end
   $var wire 1 ) co $end
   $var wire 8 * cnt [7:0] $end
   $var wire 32 6 HIGH_BASE [31:0] $end
   $var wire 32 6 LOW_BASE [31:0] $end
   $var wire 32 7 HIGH_INIT [31:0] $end
   $var wire 32 8 LOW_INIT [31:0] $end
   $var wire 32 9 HIGH_CO [31:0] $end
   $var wire 32 : LOW_CO [31:0] $end
   $var wire 1 1 low_bits_carry $end
   $var wire 1 ) global_temp_co $end
   $var wire 4 , low_bits [3:0] $end
   $var wire 4 - high_bits [3:0] $end
   $scope module HIGH_CNT $end
    $var wire 32 6 BASE [31:0] $end
    $var wire 32 7 INITIAL [31:0] $end
    $var wire 1 5 en $end
    $var wire 1 0 clk $end
    $var wire 1 # rstn $end
    $var wire 1 1 low_co $end
    $var wire 1 $ high_rst $end
    $var wire 1 2 co $end
    $var wire 4 - cnt [3:0] $end
    $var wire 1 2 temp_co $end
   $upscope $end
   $scope module LOW_CNT $end
    $var wire 32 6 BASE [31:0] $end
    $var wire 32 8 INITIAL [31:0] $end
    $var wire 1 5 en $end
    $var wire 1 0 clk $end
    $var wire 1 # rstn $end
    $var wire 1 % low_co $end
    $var wire 1 $ high_rst $end
    $var wire 1 1 co $end
    $var wire 4 , cnt [3:0] $end
    $var wire 1 1 temp_co $end
   $upscope $end
  $upscope $end
  $scope module judge $end
   $var wire 32 3 BASE [31:0] $end
   $var wire 32 4 INITIAL [31:0] $end
   $var wire 1 0 clk $end
   $var wire 1 # rstn $end
   $var wire 1 $ high_rst $end
   $var wire 1 % low_co $end
   $var wire 1 ) co $end
   $var wire 8 * cnt [7:0] $end
   $var wire 1 + error $end
   $var wire 32 & param_rstn [31:0] $end
   $var wire 32 ' param_high_rst [31:0] $end
   $var wire 32 ( param_low_co [31:0] $end
   $var wire 32 . param_co [31:0] $end
   $var wire 32 / param_cnt [31:0] $end
  $upscope $end
 $upscope $end
$enddefinitions $end


#0
0#
0$
1%
b00000000000000000000000000000000 &
b00000000000000000000000000000000 '
b00000000000000000000000000000001 (
0)
b00000000 *
0+
b0000 ,
b0000 -
b00000000000000000000000000000000 .
b00000000000000000000000000000000 /
00
01
02
b00000000000000000000000000011000 3
b00000000000000000000000000010000 4
15
b00000000000000000000000000001010 6
b00000000000000000000000000000001 7
b00000000000000000000000000000110 8
b00000000000000000000000000000010 9
b00000000000000000000000000000011 :
#500
b00010110 *
b0110 ,
b0001 -
b00000000000000000000000000010110 /
10
#1000
00
#1500
10
#2000
00
#2500
10
#3000
00
#3500
10
#4000
00
#4500
10
#5000
00
#5500
10
#6000
00
#6500
10
#7000
00
#7500
10
#8000
00
#8500
10
#9000
00
#9500
10
#10000
00
#10500
10
#11000
00
#11500
10
#12000
00
#12500
10
#13000
00
#13500
10
#14000
00
#14500
10
#15000
00
#15500
10
#16000
00
#16500
10
#17000
00
#17500
10
#18000
00
#18500
10
#19000
00
#19500
10
#20000
1#
b00000000000000000000000000000001 &
00
#20500
b00010111 *
b0111 ,
b00000000000000000000000000010111 /
10
#21000
00
#21500
b00011000 *
b1000 ,
b00000000000000000000000000011000 /
10
#22000
00
#22500
b00011001 *
b1001 ,
b00000000000000000000000000011001 /
10
#23000
00
#23500
b00010000 *
b0000 ,
b00000000000000000000000000010000 /
10
11
#24000
00
#24500
b00100001 *
1+
b0001 ,
b0010 -
b00000000000000000000000000100001 /
10
01
#25000
00
#25500
b00100010 *
0+
b0010 ,
b00000000000000000000000000100010 /
10
#26000
00
#26500
1)
b00100011 *
b0011 ,
b00000000000000000000000000000001 .
b00000000000000000000000000100011 /
10
#27000
00
#27500
0)
b00100100 *
b0100 ,
b00000000000000000000000000000000 .
b00000000000000000000000000100100 /
10
#28000
00
#28500
b00100101 *
1+
b0101 ,
b00000000000000000000000000100101 /
10
#29000
00
#29500
b00100110 *
b0110 ,
b00000000000000000000000000100110 /
10
#30000
00
#30500
b00100111 *
b0111 ,
b00000000000000000000000000100111 /
10
#31000
00
#31500
b00101000 *
b1000 ,
b00000000000000000000000000101000 /
10
#32000
00
#32500
b00101001 *
b1001 ,
b00000000000000000000000000101001 /
10
#33000
00
#33500
b00100000 *
b0000 ,
b00000000000000000000000000100000 /
10
11
#34000
00
#34500
b00110001 *
b0001 ,
b0011 -
b00000000000000000000000000110001 /
10
01
#35000
00
#35500
b00110010 *
b0010 ,
b00000000000000000000000000110010 /
10
#36000
00
#36500
b00110011 *
b0011 ,
b00000000000000000000000000110011 /
10
#37000
00
#37500
b00110100 *
b0100 ,
b00000000000000000000000000110100 /
10
#38000
00
#38500
b00110101 *
b0101 ,
b00000000000000000000000000110101 /
10
#39000
00
#39500
b00110110 *
b0110 ,
b00000000000000000000000000110110 /
10
#40000
00
#40500
b00110111 *
b0111 ,
b00000000000000000000000000110111 /
10
#41000
00
#41500
b00111000 *
b1000 ,
b00000000000000000000000000111000 /
10
#42000
00
#42500
b00111001 *
b1001 ,
b00000000000000000000000000111001 /
10
#43000
00
#43500
b00110000 *
b0000 ,
b00000000000000000000000000110000 /
10
11
#44000
00
#44500
b01000001 *
b0001 ,
b0100 -
b00000000000000000000000001000001 /
10
01
#45000
00
#45500
b01000010 *
b0010 ,
b00000000000000000000000001000010 /
10
#46000
00
#46500
b01000011 *
b0011 ,
b00000000000000000000000001000011 /
10
#47000
00
#47500
b01000100 *
b0100 ,
b00000000000000000000000001000100 /
10
#48000
00
#48500
b01000101 *
b0101 ,
b00000000000000000000000001000101 /
10
#49000
00
#49500
b01000110 *
b0110 ,
b00000000000000000000000001000110 /
10
#50000
00
#50500
b01000111 *
b0111 ,
b00000000000000000000000001000111 /
10
#51000
00
#51500
b01001000 *
b1000 ,
b00000000000000000000000001001000 /
10
#52000
00
#52500
b01001001 *
b1001 ,
b00000000000000000000000001001001 /
10
#53000
00
#53500
b01000000 *
b0000 ,
b00000000000000000000000001000000 /
10
11
#54000
00
#54500
b01010001 *
b0001 ,
b0101 -
b00000000000000000000000001010001 /
10
01
#55000
00
#55500
b01010010 *
b0010 ,
b00000000000000000000000001010010 /
10
#56000
00
#56500
b01010011 *
b0011 ,
b00000000000000000000000001010011 /
10
#57000
00
#57500
b01010100 *
b0100 ,
b00000000000000000000000001010100 /
10
#58000
00
#58500
b01010101 *
b0101 ,
b00000000000000000000000001010101 /
10
#59000
00
#59500
b01010110 *
b0110 ,
b00000000000000000000000001010110 /
10
