build/verilate/Testbench.vcd
$version Generated by VerilatedVcd $end
$timescale 10ps $end
 $scope module $rootio $end
 $upscope $end
 $scope module Testbench $end
  $var wire 32 5 BASE [31:0] $end
  $var wire 32 6 INITIAL [31:0] $end
  $var wire 1 . clk $end
  $var wire 1 # rstn $end
  $var wire 1 $ high_rst $end
  $var wire 1 % low_co $end
  $var wire 1 ) co $end
  $var wire 8 / cnt [7:0] $end
  $var wire 1 * error $end
  $scope module cnt_24 $end
   $var wire 32 5 BASE [31:0] $end
   $var wire 32 6 INITIAL [31:0] $end
   $var wire 1 7 en $end
   $var wire 1 . clk $end
   $var wire 1 # rstn $end
   $var wire 1 $ high_rst $end
   $var wire 1 % low_co $end
   $var wire 1 ) co $end
   $var wire 8 / cnt [7:0] $end
   $var wire 32 8 HIGH_BASE [31:0] $end
   $var wire 32 8 LOW_BASE [31:0] $end
   $var wire 32 9 HIGH_INIT [31:0] $end
   $var wire 32 : LOW_INIT [31:0] $end
   $var wire 32 ; HIGH_CO [31:0] $end
   $var wire 32 < LOW_CO [31:0] $end
   $var wire 1 + low_bits_carry $end
   $var wire 1 0 high_reset $end
   $var wire 4 , low_bits [3:0] $end
   $var wire 4 1 high_bits [3:0] $end
   $var wire 1 ) global_temp_co $end
   $scope module HIGH_CNT $end
    $var wire 32 8 BASE [31:0] $end
    $var wire 32 9 INITIAL [31:0] $end
    $var wire 1 7 en $end
    $var wire 1 2 clk $end
    $var wire 1 # rstn $end
    $var wire 1 + low_co $end
    $var wire 1 0 high_rst $end
    $var wire 1 3 co $end
    $var wire 4 1 cnt [3:0] $end
    $var wire 1 3 temp_co $end
   $upscope $end
   $scope module LOW_CNT $end
    $var wire 32 8 BASE [31:0] $end
    $var wire 32 : INITIAL [31:0] $end
    $var wire 1 7 en $end
    $var wire 1 . clk $end
    $var wire 1 # rstn $end
    $var wire 1 % low_co $end
    $var wire 1 0 high_rst $end
    $var wire 1 + co $end
    $var wire 4 , cnt [3:0] $end
    $var wire 1 + temp_co $end
   $upscope $end
  $upscope $end
  $scope module judge $end
   $var wire 32 5 BASE [31:0] $end
   $var wire 32 6 INITIAL [31:0] $end
   $var wire 1 . clk $end
   $var wire 1 # rstn $end
   $var wire 1 $ high_rst $end
   $var wire 1 % low_co $end
   $var wire 1 ) co $end
   $var wire 8 / cnt [7:0] $end
   $var wire 1 * error $end
   $var wire 32 & param_rstn [31:0] $end
   $var wire 32 ' param_high_rst [31:0] $end
   $var wire 32 ( param_low_co [31:0] $end
   $var wire 32 - param_co [31:0] $end
   $var wire 32 4 param_cnt [31:0] $end
  $upscope $end
 $upscope $end
$enddefinitions $end


#0
0#
0$
1%
b00000000000000000000000000000000 &
b00000000000000000000000000000000 '
b00000000000000000000000000000001 (
0)
0*
0+
b0000 ,
b00000000000000000000000000000000 -
0.
b00000000 /
00
b0000 1
12
03
b00000000000000000000000000000000 4
b00000000000000000000000000011000 5
b00000000000000000000000000010000 6
17
b00000000000000000000000000001010 8
b00000000000000000000000000000001 9
b00000000000000000000000000000110 :
b00000000000000000000000000000010 ;
b00000000000000000000000000000011 <
#500
b0110 ,
1.
b00000110 /
02
b00000000000000000000000000000110 4
#1000
0.
b00010110 /
b0001 1
12
b00000000000000000000000000010110 4
#1500
1.
02
#2000
0.
12
#2500
1.
02
#3000
0.
12
#3500
1.
02
#4000
0.
12
#4500
1.
02
#5000
0.
12
#5500
1.
02
#6000
0.
12
#6500
1.
02
#7000
0.
12
#7500
1.
02
#8000
0.
12
#8500
1.
02
#9000
0.
12
#9500
1.
02
#10000
0.
12
#10500
1.
02
#11000
0.
12
#11500
1.
02
#12000
0.
12
#12500
1.
02
#13000
0.
12
#13500
1.
02
#14000
0.
12
#14500
1.
02
#15000
0.
12
#15500
1.
02
#16000
0.
12
#16500
1.
02
#17000
0.
12
#17500
1.
02
#18000
0.
12
#18500
1.
02
#19000
0.
12
#19500
1.
02
#20000
1#
b00000000000000000000000000000001 &
0.
12
#20500
b0111 ,
1.
b00010111 /
02
b00000000000000000000000000010111 4
#21000
0.
12
#21500
b1000 ,
1.
b00011000 /
02
b00000000000000000000000000011000 4
#22000
0.
12
#22500
b1001 ,
1.
b00011001 /
02
b00000000000000000000000000011001 4
#23000
0.
12
#23500
1+
b0000 ,
1.
b00010000 /
02
b00000000000000000000000000010000 4
#24000
0.
b00100000 /
b0010 1
12
b00000000000000000000000000100000 4
#24500
0+
b0001 ,
1.
b00100001 /
02
b00000000000000000000000000100001 4
#25000
0.
12
#25500
b0010 ,
1.
b00100010 /
02
b00000000000000000000000000100010 4
#26000
0.
12
#26500
b0011 ,
1.
b00100011 /
02
b00000000000000000000000000100011 4
#27000
0.
12
#27500
1*
b0100 ,
1.
b00100100 /
02
b00000000000000000000000000100100 4
#28000
0.
12
#28500
b0101 ,
1.
b00100101 /
02
b00000000000000000000000000100101 4
#29000
0.
12
#29500
b0110 ,
1.
b00100110 /
02
b00000000000000000000000000100110 4
#30000
0.
12
#30500
b0111 ,
1.
b00100111 /
02
b00000000000000000000000000100111 4
#31000
0.
12
#31500
b1000 ,
1.
b00101000 /
02
b00000000000000000000000000101000 4
#32000
0.
12
#32500
b1001 ,
1.
b00101001 /
02
b00000000000000000000000000101001 4
#33000
0.
12
#33500
1+
b0000 ,
1.
b00100000 /
02
b00000000000000000000000000100000 4
#34000
0.
b00110000 /
b0011 1
12
b00000000000000000000000000110000 4
#34500
0+
b0001 ,
1.
b00110001 /
02
b00000000000000000000000000110001 4
#35000
0.
12
#35500
b0010 ,
1.
b00110010 /
02
b00000000000000000000000000110010 4
#36000
0.
12
#36500
b0011 ,
1.
b00110011 /
02
b00000000000000000000000000110011 4
#37000
0.
12
#37500
b0100 ,
1.
b00110100 /
02
b00000000000000000000000000110100 4
#38000
0.
12
#38500
b0101 ,
1.
b00110101 /
02
b00000000000000000000000000110101 4
#39000
0.
12
#39500
b0110 ,
1.
b00110110 /
02
b00000000000000000000000000110110 4
#40000
0.
12
#40500
b0111 ,
1.
b00110111 /
02
b00000000000000000000000000110111 4
#41000
0.
12
#41500
b1000 ,
1.
b00111000 /
02
b00000000000000000000000000111000 4
#42000
0.
12
#42500
b1001 ,
1.
b00111001 /
02
b00000000000000000000000000111001 4
#43000
0.
12
#43500
1+
b0000 ,
1.
b00110000 /
02
b00000000000000000000000000110000 4
#44000
0.
b01000000 /
b0100 1
12
b00000000000000000000000001000000 4
#44500
0+
b0001 ,
1.
b01000001 /
02
b00000000000000000000000001000001 4
#45000
0.
12
#45500
b0010 ,
1.
b01000010 /
02
b00000000000000000000000001000010 4
#46000
0.
12
#46500
b0011 ,
1.
b01000011 /
02
b00000000000000000000000001000011 4
#47000
0.
12
#47500
b0100 ,
1.
b01000100 /
02
b00000000000000000000000001000100 4
#48000
0.
12
#48500
b0101 ,
1.
b01000101 /
02
b00000000000000000000000001000101 4
#49000
0.
12
#49500
b0110 ,
1.
b01000110 /
02
b00000000000000000000000001000110 4
#50000
0.
12
#50500
b0111 ,
1.
b01000111 /
02
b00000000000000000000000001000111 4
#51000
0.
12
#51500
b1000 ,
1.
b01001000 /
02
b00000000000000000000000001001000 4
#52000
0.
12
#52500
b1001 ,
1.
b01001001 /
02
b00000000000000000000000001001001 4
#53000
0.
12
#53500
1+
b0000 ,
1.
b01000000 /
02
b00000000000000000000000001000000 4
#54000
0.
b01010000 /
b0101 1
12
b00000000000000000000000001010000 4
#54500
0+
b0001 ,
1.
b01010001 /
02
b00000000000000000000000001010001 4
#55000
0.
12
#55500
b0010 ,
1.
b01010010 /
02
b00000000000000000000000001010010 4
#56000
0.
12
#56500
b0011 ,
1.
b01010011 /
02
b00000000000000000000000001010011 4
#57000
0.
12
#57500
b0100 ,
1.
b01010100 /
02
b00000000000000000000000001010100 4
#58000
0.
12
#58500
b0101 ,
1.
b01010101 /
02
b00000000000000000000000001010101 4
#59000
0.
12
#59500
b0110 ,
1.
b01010110 /
02
b00000000000000000000000001010110 4
